src/FPGA_tester/src/qqq.vcd
$date
	Wed Nov 06 04:28:16 2024
$end
$version
	Icarus Verilog
$end
$timescale
	1s
$end
$scope module test_fsm $end
$var wire 1 ! rx_start $end
$var wire 1 " mem_wrt_en $end
$var wire 6 # mem_out [5:0] $end
$var reg 8 $ i_uart_data [7:0] $end
$var reg 1 % in_clk $end
$var reg 1 & in_rst $end
$var reg 1 ' key_data $end
$var reg 1 ( key_push $end
$var reg 6 ) mem [5:0] $end
$var reg 1 * mem_wrt_rd $end
$var reg 1 + reset_push $end
$var reg 1 , rx_busy $end
$var reg 1 - rx_done $end
$var reg 1 . uart_push $end
$scope module fsm $end
$var wire 8 / i_uart_data [7:0] $end
$var wire 1 % in_clk $end
$var wire 1 & in_rst $end
$var wire 1 ' key_data $end
$var wire 1 ( key_push $end
$var wire 6 0 mem [5:0] $end
$var wire 6 1 mem_out [5:0] $end
$var wire 1 " mem_wrt_en $end
$var wire 1 * mem_wrt_rd $end
$var wire 1 + reset_push $end
$var wire 1 , rx_busy $end
$var wire 1 - rx_done $end
$var wire 1 ! rx_start $end
$var wire 1 . uart_push $end
$var wire 2 2 uart_comand [1:0] $end
$var reg 3 3 currentState [2:0] $end
$var reg 6 4 fsm_mem [5:0] $end
$var reg 3 5 nextState [2:0] $end
$var reg 1 6 out_start_send $end
$var reg 1 7 wrt_en_mem $end
$upscope $end
$upscope $end
$enddefinitions $end
#0
$dumpvars
x7
x6
bx 5
b0 4
bx 3
b0 2
b0 1
b10101 0
b0 /
0.
0-
1,
0+
0*
b10101 )
0(
1'
0&
0%
b0 $
b0 #
x"
x!
$end
#1
b0 5
1%
#2
0%
#3
b0 3
1%
#4
0%
1(
#5
b110101 #
b110101 1
b110101 4
b1 5
1%
#6
0%
#7
b1 3
1%
#8
0%
0(
#9
b10 5
1%
1*
#10
0%
#11
b10 3
1%
#12
0%
#13
1%
0*
#14
0%
1-
#15
b0 5
1%
#16
0%
#17
b0 3
1%
#18
0%
0-
#19
b1 2
1%
b1010101 $
b1010101 /
#20
0%
1.
#21
b10 5
1%
#22
0%
#23
b10 3
1%
#24
0%
0.
#25
b0 5
1%
1-
#26
0%
#27
b0 3
1%
#28
0%
#29
1%
0-
#30
b10 2
0%
b10010101 $
b10010101 /
#31
b10101 #
b10101 1
b10101 4
b1 5
1%
1.
#32
0%
#33
b1 3
1%
#34
0%
#35
1%
0.
#36
0%
1*
#37
b10 5
1%
#38
0%
#39
b10 3
1%
#40
0%
0*
#41
b0 5
1%
1-
#42
0%
#43
b0 3
1%
#44
0%
#45
1%
0-
