src/FPGA_tester/src/qqq.vcd
$date
	Tue Nov 12 13:01:16 2024
$end
$version
	Icarus Verilog
$end
$timescale
	1s
$end
$scope module u_tx_tb $end
$var wire 1 ! out_tx $end
$var wire 1 " out_done $end
$var wire 1 # out_busy $end
$var reg 1 $ in_clk $end
$var reg 6 % in_data [5:0] $end
$var reg 1 & in_rst $end
$var reg 1 ' in_start $end
$scope module u_tx $end
$var wire 1 $ in_clk $end
$var wire 6 ( in_data [5:0] $end
$var wire 1 & in_rst $end
$var wire 1 ' in_start $end
$var wire 1 # out_busy $end
$var wire 1 " out_done $end
$var wire 1 ! out_tx $end
$var wire 1 ) tx_bit_counter_ovf $end
$var wire 1 * ticks_counter_ovf $end
$var reg 1 + busy_flag $end
$var reg 2 , currentState [1:0] $end
$var reg 1 - done_flag $end
$var reg 2 . nextState [1:0] $end
$var reg 8 / ticks_counter [7:0] $end
$var reg 4 0 tx_bit_counter [3:0] $end
$var reg 1 1 tx_output $end
$var reg 11 2 tx_reg [10:0] $end
$upscope $end
$upscope $end
$enddefinitions $end
#0
$dumpvars
bx 2
x1
bx 0
bx /
b0x .
x-
bx ,
x+
x*
x)
bx (
x'
x&
bx %
0$
x#
x"
x!
$end
#1
b0x ,
1$
#2
0$
#3
1$
#4
0$
#5
1$
#6
0$
#7
1$
#8
1!
11
0#
0+
0"
0-
0$
0&
#9
b0 .
b0 ,
0*
b0 /
0)
b1010 0
1$
#10
0$
#11
b0 .
b1000xxxxxx1 2
1$
#12
0$
#13
1$
#14
0$
#15
1$
#16
b0 .
0$
1&
#17
1$
#18
0$
#19
1$
#20
0$
#21
1$
#22
0$
#23
1$
#24
0$
#25
1$
#26
b1 .
0$
1'
b101010 %
b101010 (
#27
1#
1+
b10 .
b10001010101 2
b1 ,
1$
#28
b10 .
0$
0'
#29
b10 .
0!
01
b10 ,
b1001 0
1$
#30
0$
#31
b1 /
1$
#32
0$
#33
b10 /
1$
#34
0$
#35
b11 /
1$
#36
0$
#37
b100 /
1$
#38
0$
#39
b101 /
1$
#40
0$
#41
b110 /
1$
#42
0$
#43
b111 /
1$
#44
0$
#45
b1000 /
1$
#46
0$
#47
b1001 /
1$
#48
0$
#49
b1010 /
1$
#50
0$
#51
b1011 /
1$
#52
0$
#53
b1100 /
1$
#54
0$
#55
b1101 /
1$
#56
0$
#57
b1110 /
1$
#58
0$
#59
b1111 /
1$
#60
0$
#61
b10000 /
1$
#62
0$
#63
b10001 /
1$
#64
0$
#65
b10010 /
1$
#66
0$
#67
b10011 /
1$
#68
0$
#69
b10100 /
1$
#70
0$
#71
b10101 /
1$
#72
0$
#73
b10110 /
1$
#74
0$
#75
b10111 /
1$
#76
0$
#77
b11000 /
1$
#78
0$
#79
b11001 /
1$
#80
0$
#81
b11010 /
1$
#82
0$
#83
b11011 /
1$
#84
0$
#85
b11100 /
1$
#86
0$
#87
b11101 /
1$
#88
0$
#89
b11110 /
1$
#90
0$
#91
b11111 /
1$
#92
0$
#93
b100000 /
1$
#94
0$
#95
b100001 /
1$
#96
0$
#97
b100010 /
1$
#98
0$
#99
b100011 /
1$
#100
0$
#101
b100100 /
1$
#102
0$
#103
b100101 /
1$
#104
0$
#105
b100110 /
1$
#106
0$
#107
b100111 /
1$
#108
0$
#109
b101000 /
1$
#110
0$
#111
b101001 /
1$
#112
0$
#113
b101010 /
1$
#114
0$
#115
b101011 /
1$
#116
0$
#117
b101100 /
1$
#118
0$
#119
b101101 /
1$
#120
0$
#121
b101110 /
1$
#122
0$
#123
b101111 /
1$
#124
0$
#125
b110000 /
1$
#126
0$
#127
b110001 /
1$
#128
0$
#129
b110010 /
1$
#130
0$
#131
b110011 /
1$
#132
0$
#133
b110100 /
1$
#134
0$
#135
b110101 /
1$
#136
0$
#137
b110110 /
1$
#138
0$
#139
b110111 /
1$
#140
0$
#141
b111000 /
1$
#142
0$
#143
b111001 /
1$
#144
0$
#145
b111010 /
1$
#146
0$
#147
b111011 /
1$
#148
0$
#149
b111100 /
1$
#150
0$
#151
b111101 /
1$
#152
0$
#153
b111110 /
1$
#154
0$
#155
b111111 /
1$
#156
0$
#157
b1000000 /
1$
#158
0$
#159
b1000001 /
1$
#160
0$
#161
b1000010 /
1$
#162
0$
#163
b1000011 /
1$
#164
0$
#165
b1000100 /
1$
#166
0$
#167
b1000101 /
1$
#168
0$
#169
b1000110 /
1$
#170
0$
#171
b1000111 /
1$
#172
0$
#173
b1001000 /
1$
#174
0$
#175
b1001001 /
1$
#176
0$
#177
b1001010 /
1$
#178
0$
#179
b1001011 /
1$
#180
0$
#181
b1001100 /
1$
#182
0$
#183
b1001101 /
1$
#184
0$
#185
b1001110 /
1$
#186
0$
#187
b1001111 /
1$
#188
0$
#189
b1010000 /
1$
#190
0$
#191
b1010001 /
1$
#192
0$
#193
b1010010 /
1$
#194
0$
#195
b1010011 /
1$
#196
0$
#197
b1010100 /
1$
#198
0$
#199
b1010101 /
1$
#200
0$
#201
b1010110 /
1$
#202
0$
#203
b1010111 /
1$
#204
0$
#205
b1011000 /
1$
#206
0$
#207
b1011001 /
1$
#208
0$
#209
b1011010 /
1$
#210
0$
#211
b1011011 /
1$
#212
0$
#213
b1011100 /
1$
#214
0$
#215
b1011101 /
1$
#216
0$
#217
b1011110 /
1$
#218
0$
#219
b1011111 /
1$
#220
0$
#221
b1100000 /
1$
#222
0$
#223
b1100001 /
1$
#224
0$
#225
b1100010 /
1$
#226
0$
#227
b1100011 /
1$
#228
0$
#229
b1100100 /
1$
#230
0$
#231
b1100101 /
1$
#232
0$
#233
b1100110 /
1$
#234
0$
#235
b1100111 /
1$
#236
0$
#237
b1101000 /
1$
#238
0$
#239
b1101001 /
1$
#240
0$
#241
b1101010 /
1$
#242
0$
#243
b1101011 /
1$
#244
0$
#245
b1101100 /
1$
#246
0$
#247
b1101101 /
1$
#248
0$
#249
b1101110 /
1$
#250
0$
#251
b1101111 /
1$
#252
0$
#253
b1110000 /
1$
#254
0$
#255
b1110001 /
1$
#256
0$
#257
b1110010 /
1$
#258
0$
#259
b1110011 /
1$
#260
0$
#261
b1110100 /
1$
#262
0$
#263
b1110101 /
1$
#264
0$
#265
b1110110 /
1$
#266
0$
#267
b1110111 /
1$
#268
0$
#269
b1111000 /
1$
#270
0$
#271
b1111001 /
1$
#272
0$
#273
b1111010 /
1$
#274
0$
#275
b1111011 /
1$
#276
0$
#277
b1111100 /
1$
#278
0$
#279
b1111101 /
1$
#280
0$
#281
b1111110 /
1$
#282
0$
#283
b1111111 /
1$
#284
0$
#285
b10000000 /
1$
#286
0$
#287
b10000001 /
1$
#288
0$
#289
b10000010 /
1$
#290
0$
#291
b10000011 /
1$
#292
0$
#293
b10000100 /
1$
#294
0$
#295
b10000101 /
1$
#296
0$
#297
b10000110 /
1$
#298
0$
#299
b10000111 /
1$
#300
0$
#301
b10001000 /
1$
#302
0$
#303
b10001001 /
1$
#304
0$
#305
b10001010 /
1$
#306
0$
#307
b10001011 /
1$
#308
0$
#309
b10001100 /
1$
#310
0$
#311
b10001101 /
1$
#312
0$
#313
b10001110 /
1$
#314
0$
#315
b10001111 /
1$
#316
0$
#317
b10010000 /
1$
#318
0$
#319
b10010001 /
1$
#320
0$
#321
b10010010 /
1$
#322
0$
#323
b10010011 /
1$
#324
0$
#325
b10010100 /
1$
#326
0$
#327
b10010101 /
1$
#328
0$
#329
b10010110 /
1$
#330
0$
#331
b10010111 /
1$
#332
0$
#333
b10011000 /
1$
#334
0$
#335
b10011001 /
1$
#336
0$
#337
b10011010 /
1$
#338
0$
#339
b10011011 /
1$
#340
0$
#341
b10011100 /
1$
#342
0$
#343
b10011101 /
1$
#344
0$
#345
b10011110 /
1$
#346
0$
#347
b10011111 /
1$
#348
0$
#349
b10100000 /
1$
#350
0$
#351
b10100001 /
1$
#352
0$
#353
b10100010 /
1$
#354
0$
#355
b10100011 /
1$
#356
0$
#357
b10100100 /
1$
#358
0$
#359
b10100101 /
1$
#360
0$
#361
b10100110 /
1$
#362
0$
#363
b10100111 /
1$
#364
0$
#365
b10101000 /
1$
#366
0$
#367
b10101001 /
1$
#368
0$
#369
b10101010 /
1$
#370
0$
#371
b10101011 /
1$
#372
0$
#373
b10101100 /
1$
#374
0$
#375
b10101101 /
1$
#376
0$
#377
b10101110 /
1$
#378
0$
#379
b10101111 /
1$
#380
0$
#381
b10110000 /
1$
#382
0$
#383
b10110001 /
1$
#384
0$
#385
b10110010 /
1$
#386
0$
#387
b10110011 /
1$
#388
0$
#389
b10110100 /
1$
#390
0$
#391
b10110101 /
1$
#392
0$
#393
b10110110 /
1$
#394
0$
#395
b10110111 /
1$
#396
0$
#397
b10111000 /
1$
#398
0$
#399
b10111001 /
1$
#400
0$
#401
b10111010 /
1$
#402
0$
#403
b10111011 /
1$
#404
0$
#405
b10111100 /
1$
#406
0$
#407
b10111101 /
1$
#408
0$
#409
b10111110 /
1$
#410
0$
#411
b10111111 /
1$
#412
0$
#413
b11000000 /
1$
#414
0$
#415
b11000001 /
1$
#416
0$
#417
b11000010 /
1$
#418
0$
#419
b11000011 /
1$
#420
0$
#421
b11000100 /
1$
#422
0$
#423
b11000101 /
1$
#424
0$
#425
b11000110 /
1$
#426
0$
#427
b11000111 /
1$
#428
0$
#429
b11001000 /
1$
#430
0$
#431
b11001001 /
1$
#432
0$
#433
b11001010 /
1$
#434
0$
#435
b11001011 /
1$
#436
0$
#437
b11001100 /
1$
#438
0$
#439
b11001101 /
1$
#440
0$
#441
b11001110 /
1$
#442
0$
#443
b11001111 /
1$
#444
0$
#445
b11010000 /
1$
#446
0$
#447
b11010001 /
1$
#448
0$
#449
b11010010 /
1$
#450
0$
#451
b11010011 /
1$
#452
0$
#453
b11010100 /
1$
#454
0$
#455
b11010101 /
1$
#456
0$
#457
b11010110 /
1$
#458
0$
#459
b11010111 /
1$
#460
0$
#461
b11011000 /
1$
#462
0$
#463
b11011001 /
1$
#464
0$
#465
b11011010 /
1$
#466
0$
#467
b11011011 /
1$
#468
0$
#469
b11011100 /
1$
#470
0$
#471
b11011101 /
1$
#472
0$
#473
b11011110 /
1$
#474
0$
#475
b11011111 /
1$
#476
0$
#477
b11100000 /
1$
#478
0$
#479
b11100001 /
1$
#480
0$
#481
b11100010 /
1$
#482
0$
#483
b11100011 /
1$
#484
0$
#485
b11100100 /
1$
#486
0$
#487
b11100101 /
1$
#488
0$
#489
b11100110 /
1$
#490
0$
#491
b11100111 /
1$
#492
0$
#493
b11101000 /
1$
#494
0$
#495
b11101001 /
1$
#496
0$
#497
b11101010 /
1$
#498
0$
#499
b11101011 /
1$
#500
0$
#501
b11101100 /
1$
#502
0$
#503
b11101101 /
1$
#504
0$
#505
b11101110 /
1$
#506
0$
#507
b11101111 /
1$
#508
0$
#509
b11110000 /
1$
#510
0$
#511
b11110001 /
1$
#512
0$
#513
b1 .
1*
b11110010 /
1$
#514
0$
#515
b10 .
0*
b0 /
b1 ,
1$
#516
0$
#517
b10 .
b10 ,
b1000 0
1$
#518
0$
#519
b1 /
1$
#520
0$
#521
b10 /
1$
#522
0$
#523
b11 /
1$
#524
0$
#525
b100 /
1$
#526
0$
#527
b101 /
1$
#528
0$
#529
b110 /
1$
#530
0$
#531
b111 /
1$
#532
0$
#533
b1000 /
1$
#534
0$
#535
b1001 /
1$
#536
0$
#537
b1010 /
1$
#538
0$
#539
b1011 /
1$
#540
0$
#541
b1100 /
1$
#542
0$
#543
b1101 /
1$
#544
0$
#545
b1110 /
1$
#546
0$
#547
b1111 /
1$
#548
0$
#549
b10000 /
1$
#550
0$
#551
b10001 /
1$
#552
0$
#553
b10010 /
1$
#554
0$
#555
b10011 /
1$
#556
0$
#557
b10100 /
1$
#558
0$
#559
b10101 /
1$
#560
0$
#561
b10110 /
1$
#562
0$
#563
b10111 /
1$
#564
0$
#565
b11000 /
1$
#566
0$
#567
b11001 /
1$
#568
0$
#569
b11010 /
1$
#570
0$
#571
b11011 /
1$
#572
0$
#573
b11100 /
1$
#574
0$
#575
b11101 /
1$
#576
0$
#577
b11110 /
1$
#578
0$
#579
b11111 /
1$
#580
0$
#581
b100000 /
1$
#582
0$
#583
b100001 /
1$
#584
0$
#585
b100010 /
1$
#586
0$
#587
b100011 /
1$
#588
0$
#589
b100100 /
1$
#590
0$
#591
b100101 /
1$
#592
0$
#593
b100110 /
1$
#594
0$
#595
b100111 /
1$
#596
0$
#597
b101000 /
1$
#598
0$
#599
b101001 /
1$
#600
0$
#601
b101010 /
1$
#602
0$
#603
b101011 /
1$
#604
0$
#605
b101100 /
1$
#606
0$
#607
b101101 /
1$
#608
0$
#609
b101110 /
1$
#610
0$
#611
b101111 /
1$
#612
0$
#613
b110000 /
1$
#614
0$
#615
b110001 /
1$
#616
0$
#617
b110010 /
1$
#618
0$
#619
b110011 /
1$
#620
0$
#621
b110100 /
1$
#622
0$
#623
b110101 /
1$
#624
0$
#625
b110110 /
1$
#626
0$
#627
b110111 /
1$
#628
0$
#629
b111000 /
1$
#630
0$
#631
b111001 /
1$
#632
0$
#633
b111010 /
1$
#634
0$
#635
b111011 /
1$
#636
0$
#637
b111100 /
1$
#638
0$
#639
b111101 /
1$
#640
0$
#641
b111110 /
1$
#642
0$
#643
b111111 /
1$
#644
0$
#645
b1000000 /
1$
#646
0$
#647
b1000001 /
1$
#648
0$
#649
b1000010 /
1$
#650
0$
#651
b1000011 /
1$
#652
0$
#653
b1000100 /
1$
#654
0$
#655
b1000101 /
1$
#656
0$
#657
b1000110 /
1$
#658
0$
#659
b1000111 /
1$
#660
0$
#661
b1001000 /
1$
#662
0$
#663
b1001001 /
1$
#664
0$
#665
b1001010 /
1$
#666
0$
#667
b1001011 /
1$
#668
0$
#669
b1001100 /
1$
#670
0$
#671
b1001101 /
1$
#672
0$
#673
b1001110 /
1$
#674
0$
#675
b1001111 /
1$
#676
0$
#677
b1010000 /
1$
#678
0$
#679
b1010001 /
1$
#680
0$
#681
b1010010 /
1$
#682
0$
#683
b1010011 /
1$
#684
0$
#685
b1010100 /
1$
#686
0$
#687
b1010101 /
1$
#688
0$
#689
b1010110 /
1$
#690
0$
#691
b1010111 /
1$
#692
0$
#693
b1011000 /
1$
#694
0$
#695
b1011001 /
1$
#696
0$
#697
b1011010 /
1$
#698
0$
#699
b1011011 /
1$
#700
0$
#701
b1011100 /
1$
#702
0$
#703
b1011101 /
1$
#704
0$
#705
b1011110 /
1$
#706
0$
#707
b1011111 /
1$
#708
0$
#709
b1100000 /
1$
#710
0$
#711
b1100001 /
1$
#712
0$
#713
b1100010 /
1$
#714
0$
#715
b1100011 /
1$
#716
0$
#717
b1100100 /
1$
#718
0$
#719
b1100101 /
1$
#720
0$
#721
b1100110 /
1$
#722
0$
#723
b1100111 /
1$
#724
0$
#725
b1101000 /
1$
#726
0$
#727
b1101001 /
1$
#728
0$
#729
b1101010 /
1$
#730
0$
#731
b1101011 /
1$
#732
0$
#733
b1101100 /
1$
#734
0$
#735
b1101101 /
1$
#736
0$
#737
b1101110 /
1$
#738
0$
#739
b1101111 /
1$
#740
0$
#741
b1110000 /
1$
#742
0$
#743
b1110001 /
1$
#744
0$
#745
b1110010 /
1$
#746
0$
#747
b1110011 /
1$
#748
0$
#749
b1110100 /
1$
#750
0$
#751
b1110101 /
1$
#752
0$
#753
b1110110 /
1$
#754
0$
#755
b1110111 /
1$
#756
0$
#757
b1111000 /
1$
#758
0$
#759
b1111001 /
1$
#760
0$
#761
b1111010 /
1$
#762
0$
#763
b1111011 /
1$
#764
0$
#765
b1111100 /
1$
#766
0$
#767
b1111101 /
1$
#768
0$
#769
b1111110 /
1$
#770
0$
#771
b1111111 /
1$
#772
0$
#773
b10000000 /
1$
#774
0$
#775
b10000001 /
1$
#776
0$
#777
b10000010 /
1$
#778
0$
#779
b10000011 /
1$
#780
0$
#781
b10000100 /
1$
#782
0$
#783
b10000101 /
1$
#784
0$
#785
b10000110 /
1$
#786
0$
#787
b10000111 /
1$
#788
0$
#789
b10001000 /
1$
#790
0$
#791
b10001001 /
1$
#792
0$
#793
b10001010 /
1$
#794
0$
#795
b10001011 /
1$
#796
0$
#797
b10001100 /
1$
#798
0$
#799
b10001101 /
1$
#800
0$
#801
b10001110 /
1$
#802
0$
#803
b10001111 /
1$
#804
0$
#805
b10010000 /
1$
#806
0$
#807
b10010001 /
1$
#808
0$
#809
b10010010 /
1$
#810
0$
#811
b10010011 /
1$
#812
0$
#813
b10010100 /
1$
#814
0$
#815
b10010101 /
1$
#816
0$
#817
b10010110 /
1$
#818
0$
#819
b10010111 /
1$
#820
0$
#821
b10011000 /
1$
#822
0$
#823
b10011001 /
1$
#824
0$
#825
b10011010 /
1$
#826
0$
#827
b10011011 /
1$
#828
0$
#829
b10011100 /
1$
#830
0$
#831
b10011101 /
1$
#832
0$
#833
b10011110 /
1$
#834
0$
#835
b10011111 /
1$
#836
0$
#837
b10100000 /
1$
#838
0$
#839
b10100001 /
1$
#840
0$
#841
b10100010 /
1$
#842
0$
#843
b10100011 /
1$
#844
0$
#845
b10100100 /
1$
#846
0$
#847
b10100101 /
1$
#848
0$
#849
b10100110 /
1$
#850
0$
#851
b10100111 /
1$
#852
0$
#853
b10101000 /
1$
#854
0$
#855
b10101001 /
1$
#856
0$
#857
b10101010 /
1$
#858
0$
#859
b10101011 /
1$
#860
0$
#861
b10101100 /
1$
#862
0$
#863
b10101101 /
1$
#864
0$
#865
b10101110 /
1$
#866
0$
#867
b10101111 /
1$
#868
0$
#869
b10110000 /
1$
#870
0$
#871
b10110001 /
1$
#872
0$
#873
b10110010 /
1$
#874
0$
#875
b10110011 /
1$
#876
0$
#877
b10110100 /
1$
#878
0$
#879
b10110101 /
1$
#880
0$
#881
b10110110 /
1$
#882
0$
#883
b10110111 /
1$
#884
0$
#885
b10111000 /
1$
#886
0$
#887
b10111001 /
1$
#888
0$
#889
b10111010 /
1$
#890
0$
#891
b10111011 /
1$
#892
0$
#893
b10111100 /
1$
#894
0$
#895
b10111101 /
1$
#896
0$
#897
b10111110 /
1$
#898
0$
#899
b10111111 /
1$
#900
0$
#901
b11000000 /
1$
#902
0$
#903
b11000001 /
1$
#904
0$
#905
b11000010 /
1$
#906
0$
#907
b11000011 /
1$
#908
0$
#909
b11000100 /
1$
#910
0$
#911
b11000101 /
1$
#912
0$
#913
b11000110 /
1$
#914
0$
#915
b11000111 /
1$
#916
0$
#917
b11001000 /
1$
#918
0$
#919
b11001001 /
1$
#920
0$
#921
b11001010 /
1$
#922
0$
#923
b11001011 /
1$
#924
0$
#925
b11001100 /
1$
#926
0$
#927
b11001101 /
1$
#928
0$
#929
b11001110 /
1$
#930
0$
#931
b11001111 /
1$
#932
0$
#933
b11010000 /
1$
#934
0$
#935
b11010001 /
1$
#936
0$
#937
b11010010 /
1$
#938
0$
#939
b11010011 /
1$
#940
0$
#941
b11010100 /
1$
#942
0$
#943
b11010101 /
1$
#944
0$
#945
b11010110 /
1$
#946
0$
#947
b11010111 /
1$
#948
0$
#949
b11011000 /
1$
#950
0$
#951
b11011001 /
1$
#952
0$
#953
b11011010 /
1$
#954
0$
#955
b11011011 /
1$
#956
0$
#957
b11011100 /
1$
#958
0$
#959
b11011101 /
1$
#960
0$
#961
b11011110 /
1$
#962
0$
#963
b11011111 /
1$
#964
0$
#965
b11100000 /
1$
#966
0$
#967
b11100001 /
1$
#968
0$
#969
b11100010 /
1$
#970
0$
#971
b11100011 /
1$
#972
0$
#973
b11100100 /
1$
#974
0$
#975
b11100101 /
1$
#976
0$
#977
b11100110 /
1$
#978
0$
#979
b11100111 /
1$
#980
0$
#981
b11101000 /
1$
#982
0$
#983
b11101001 /
1$
#984
0$
#985
b11101010 /
1$
#986
0$
#987
b11101011 /
1$
#988
0$
#989
b11101100 /
1$
#990
0$
#991
b11101101 /
1$
#992
0$
#993
b11101110 /
1$
#994
0$
#995
b11101111 /
1$
#996
0$
#997
b11110000 /
1$
#998
0$
#999
b11110001 /
1$
#1000
0$
#1001
b1 .
1*
b11110010 /
1$
#1002
0$
#1003
b10 .
0*
b0 /
b1 ,
1$
#1004
0$
#1005
b10 .
b10 ,
b111 0
1$
#1006
0$
#1007
b1 /
1$
#1008
0$
#1009
b10 /
1$
#1010
0$
#1011
b11 /
1$
#1012
0$
#1013
b100 /
1$
#1014
0$
#1015
b101 /
1$
#1016
0$
#1017
b110 /
1$
#1018
0$
#1019
b111 /
1$
#1020
0$
#1021
b1000 /
1$
#1022
0$
#1023
b1001 /
1$
#1024
0$
#1025
b1010 /
1$
#1026
0$
#1027
b1011 /
1$
#1028
0$
#1029
b1100 /
1$
#1030
0$
#1031
b1101 /
1$
#1032
0$
#1033
b1110 /
1$
#1034
0$
#1035
b1111 /
1$
#1036
0$
#1037
b10000 /
1$
#1038
0$
#1039
b10001 /
1$
#1040
0$
#1041
b10010 /
1$
#1042
0$
#1043
b10011 /
1$
#1044
0$
#1045
b10100 /
1$
#1046
0$
#1047
b10101 /
1$
#1048
0$
#1049
b10110 /
1$
#1050
0$
#1051
b10111 /
1$
#1052
0$
#1053
b11000 /
1$
#1054
0$
#1055
b11001 /
1$
#1056
0$
#1057
b11010 /
1$
#1058
0$
#1059
b11011 /
1$
#1060
0$
#1061
b11100 /
1$
#1062
0$
#1063
b11101 /
1$
#1064
0$
#1065
b11110 /
1$
#1066
0$
#1067
b11111 /
1$
#1068
0$
#1069
b100000 /
1$
#1070
0$
#1071
b100001 /
1$
#1072
0$
#1073
b100010 /
1$
#1074
0$
#1075
b100011 /
1$
#1076
0$
#1077
b100100 /
1$
#1078
0$
#1079
b100101 /
1$
#1080
0$
#1081
b100110 /
1$
#1082
0$
#1083
b100111 /
1$
#1084
0$
#1085
b101000 /
1$
#1086
0$
#1087
b101001 /
1$
#1088
0$
#1089
b101010 /
1$
#1090
0$
#1091
b101011 /
1$
#1092
0$
#1093
b101100 /
1$
#1094
0$
#1095
b101101 /
1$
#1096
0$
#1097
b101110 /
1$
#1098
0$
#1099
b101111 /
1$
#1100
0$
#1101
b110000 /
1$
#1102
0$
#1103
b110001 /
1$
#1104
0$
#1105
b110010 /
1$
#1106
0$
#1107
b110011 /
1$
#1108
0$
#1109
b110100 /
1$
#1110
0$
#1111
b110101 /
1$
#1112
0$
#1113
b110110 /
1$
#1114
0$
#1115
b110111 /
1$
#1116
0$
#1117
b111000 /
1$
#1118
0$
#1119
b111001 /
1$
#1120
0$
#1121
b111010 /
1$
#1122
0$
#1123
b111011 /
1$
#1124
0$
#1125
b111100 /
1$
#1126
0$
#1127
b111101 /
1$
#1128
0$
#1129
b111110 /
1$
#1130
0$
#1131
b111111 /
1$
#1132
0$
#1133
b1000000 /
1$
#1134
0$
#1135
b1000001 /
1$
#1136
0$
#1137
b1000010 /
1$
#1138
0$
#1139
b1000011 /
1$
#1140
0$
#1141
b1000100 /
1$
#1142
0$
#1143
b1000101 /
1$
#1144
0$
#1145
b1000110 /
1$
#1146
0$
#1147
b1000111 /
1$
#1148
0$
#1149
b1001000 /
1$
#1150
0$
#1151
b1001001 /
1$
#1152
0$
#1153
b1001010 /
1$
#1154
0$
#1155
b1001011 /
1$
#1156
0$
#1157
b1001100 /
1$
#1158
0$
#1159
b1001101 /
1$
#1160
0$
#1161
b1001110 /
1$
#1162
0$
#1163
b1001111 /
1$
#1164
0$
#1165
b1010000 /
1$
#1166
0$
#1167
b1010001 /
1$
#1168
0$
#1169
b1010010 /
1$
#1170
0$
#1171
b1010011 /
1$
#1172
0$
#1173
b1010100 /
1$
#1174
0$
#1175
b1010101 /
1$
#1176
0$
#1177
b1010110 /
1$
#1178
0$
#1179
b1010111 /
1$
#1180
0$
#1181
b1011000 /
1$
#1182
0$
#1183
b1011001 /
1$
#1184
0$
#1185
b1011010 /
1$
#1186
0$
#1187
b1011011 /
1$
#1188
0$
#1189
b1011100 /
1$
#1190
0$
#1191
b1011101 /
1$
#1192
0$
#1193
b1011110 /
1$
#1194
0$
#1195
b1011111 /
1$
#1196
0$
#1197
b1100000 /
1$
#1198
0$
#1199
b1100001 /
1$
#1200
0$
#1201
b1100010 /
1$
#1202
0$
#1203
b1100011 /
1$
#1204
0$
#1205
b1100100 /
1$
#1206
0$
#1207
b1100101 /
1$
#1208
0$
#1209
b1100110 /
1$
#1210
0$
#1211
b1100111 /
1$
#1212
0$
#1213
b1101000 /
1$
#1214
0$
#1215
b1101001 /
1$
#1216
0$
#1217
b1101010 /
1$
#1218
0$
#1219
b1101011 /
1$
#1220
0$
#1221
b1101100 /
1$
#1222
0$
#1223
b1101101 /
1$
#1224
0$
#1225
b1101110 /
1$
#1226
0$
#1227
b1101111 /
1$
#1228
0$
#1229
b1110000 /
1$
#1230
0$
#1231
b1110001 /
1$
#1232
0$
#1233
b1110010 /
1$
#1234
0$
#1235
b1110011 /
1$
#1236
0$
#1237
b1110100 /
1$
#1238
0$
#1239
b1110101 /
1$
#1240
0$
#1241
b1110110 /
1$
#1242
0$
#1243
b1110111 /
1$
#1244
0$
#1245
b1111000 /
1$
#1246
0$
#1247
b1111001 /
1$
#1248
0$
#1249
b1111010 /
1$
#1250
0$
#1251
b1111011 /
1$
#1252
0$
#1253
b1111100 /
1$
#1254
0$
#1255
b1111101 /
1$
#1256
0$
#1257
b1111110 /
1$
#1258
0$
#1259
b1111111 /
1$
#1260
0$
#1261
b10000000 /
1$
#1262
0$
#1263
b10000001 /
1$
#1264
0$
#1265
b10000010 /
1$
#1266
0$
#1267
b10000011 /
1$
#1268
0$
#1269
b10000100 /
1$
#1270
0$
#1271
b10000101 /
1$
#1272
0$
#1273
b10000110 /
1$
#1274
0$
#1275
b10000111 /
1$
#1276
0$
#1277
b10001000 /
1$
#1278
0$
#1279
b10001001 /
1$
#1280
0$
#1281
b10001010 /
1$
#1282
0$
#1283
b10001011 /
1$
#1284
0$
#1285
b10001100 /
1$
#1286
0$
#1287
b10001101 /
1$
#1288
0$
#1289
b10001110 /
1$
#1290
0$
#1291
b10001111 /
1$
#1292
0$
#1293
b10010000 /
1$
#1294
0$
#1295
b10010001 /
1$
#1296
0$
#1297
b10010010 /
1$
#1298
0$
#1299
b10010011 /
1$
#1300
0$
#1301
b10010100 /
1$
#1302
0$
#1303
b10010101 /
1$
#1304
0$
#1305
b10010110 /
1$
#1306
0$
#1307
b10010111 /
1$
#1308
0$
#1309
b10011000 /
1$
#1310
0$
#1311
b10011001 /
1$
#1312
0$
#1313
b10011010 /
1$
#1314
0$
#1315
b10011011 /
1$
#1316
0$
#1317
b10011100 /
1$
#1318
0$
#1319
b10011101 /
1$
#1320
0$
#1321
b10011110 /
1$
#1322
0$
#1323
b10011111 /
1$
#1324
0$
#1325
b10100000 /
1$
#1326
0$
#1327
b10100001 /
1$
#1328
0$
#1329
b10100010 /
1$
#1330
0$
#1331
b10100011 /
1$
#1332
0$
#1333
b10100100 /
1$
#1334
0$
#1335
b10100101 /
1$
#1336
0$
#1337
b10100110 /
1$
#1338
0$
#1339
b10100111 /
1$
#1340
0$
#1341
b10101000 /
1$
#1342
0$
#1343
b10101001 /
1$
#1344
0$
#1345
b10101010 /
1$
#1346
0$
#1347
b10101011 /
1$
#1348
0$
#1349
b10101100 /
1$
#1350
0$
#1351
b10101101 /
1$
#1352
0$
#1353
b10101110 /
1$
#1354
0$
#1355
b10101111 /
1$
#1356
0$
#1357
b10110000 /
1$
#1358
0$
#1359
b10110001 /
1$
#1360
0$
#1361
b10110010 /
1$
#1362
0$
#1363
b10110011 /
1$
#1364
0$
#1365
b10110100 /
1$
#1366
0$
#1367
b10110101 /
1$
#1368
0$
#1369
b10110110 /
1$
#1370
0$
#1371
b10110111 /
1$
#1372
0$
#1373
b10111000 /
1$
#1374
0$
#1375
b10111001 /
1$
#1376
0$
#1377
b10111010 /
1$
#1378
0$
#1379
b10111011 /
1$
#1380
0$
#1381
b10111100 /
1$
#1382
0$
#1383
b10111101 /
1$
#1384
0$
#1385
b10111110 /
1$
#1386
0$
#1387
b10111111 /
1$
#1388
0$
#1389
b11000000 /
1$
#1390
0$
#1391
b11000001 /
1$
#1392
0$
#1393
b11000010 /
1$
#1394
0$
#1395
b11000011 /
1$
#1396
0$
#1397
b11000100 /
1$
#1398
0$
#1399
b11000101 /
1$
#1400
0$
#1401
b11000110 /
1$
#1402
0$
#1403
b11000111 /
1$
#1404
0$
#1405
b11001000 /
1$
#1406
0$
#1407
b11001001 /
1$
#1408
0$
#1409
b11001010 /
1$
#1410
0$
#1411
b11001011 /
1$
#1412
0$
#1413
b11001100 /
1$
#1414
0$
#1415
b11001101 /
1$
#1416
0$
#1417
b11001110 /
1$
#1418
0$
#1419
b11001111 /
1$
#1420
0$
#1421
b11010000 /
1$
#1422
0$
#1423
b11010001 /
1$
#1424
0$
#1425
b11010010 /
1$
#1426
0$
#1427
b11010011 /
1$
#1428
0$
#1429
b11010100 /
1$
#1430
0$
#1431
b11010101 /
1$
#1432
0$
#1433
b11010110 /
1$
#1434
0$
#1435
b11010111 /
1$
#1436
0$
#1437
b11011000 /
1$
#1438
0$
#1439
b11011001 /
1$
#1440
0$
#1441
b11011010 /
1$
#1442
0$
#1443
b11011011 /
1$
#1444
0$
#1445
b11011100 /
1$
#1446
0$
#1447
b11011101 /
1$
#1448
0$
#1449
b11011110 /
1$
#1450
0$
#1451
b11011111 /
1$
#1452
0$
#1453
b11100000 /
1$
#1454
0$
#1455
b11100001 /
1$
#1456
0$
#1457
b11100010 /
1$
#1458
0$
#1459
b11100011 /
1$
#1460
0$
#1461
b11100100 /
1$
#1462
0$
#1463
b11100101 /
1$
#1464
0$
#1465
b11100110 /
1$
#1466
0$
#1467
b11100111 /
1$
#1468
0$
#1469
b11101000 /
1$
#1470
0$
#1471
b11101001 /
1$
#1472
0$
#1473
b11101010 /
1$
#1474
0$
