src/FPGA_tester/src/top.vcd
$date
	Sun Nov 17 02:08:35 2024
$end
$version
	Icarus Verilog
$end
$timescale
	1s
$end
$scope module tester_tb $end
$var wire 1 ! uart_tx $end
$var wire 6 " led [5:0] $end
$var reg 1 # clk $end
$var reg 1 $ key_rst $end
$var reg 1 % key_switch $end
$var reg 1 & uart_rx $end
$scope module top $end
$var wire 1 # clk $end
$var wire 1 $ key_rst $end
$var wire 1 % key_switch $end
$var wire 1 & uart_rx $end
$var wire 1 ' utx_s_rd $end
$var wire 1 ( utx_s_en $end
$var wire 1 ) utx_s_bs $end
$var wire 1 * urx_rc_rd $end
$var wire 8 + urx [7:0] $end
$var wire 1 ! uart_tx $end
$var wire 1 , rst_en $end
$var wire 1 - rst $end
$var wire 1 . push_sw $end
$var wire 1 / push_rst $end
$var wire 6 0 mem_wr [5:0] $end
$var wire 1 1 mem_w_rd $end
$var wire 1 2 mem_w_en $end
$var wire 6 3 mem_rd [5:0] $end
$var wire 6 4 led [5:0] $end
$scope module fsm $end
$var wire 1 # in_clk $end
$var wire 6 5 out_mem [5:0] $end
$var wire 6 6 mem_c [5:0] $end
$var wire 1 ' in_utx_s_rd $end
$var wire 1 ) in_utx_s_bs $end
$var wire 8 7 in_urx [7:0] $end
$var wire 1 - in_rst $end
$var wire 1 . in_push_sw $end
$var wire 1 / in_push_rst $end
$var wire 1 1 in_mem_w_rd $end
$var wire 6 8 in_mem [5:0] $end
$var wire 1 9 in_cmd_setup $end
$var wire 1 : in_cmd_send $end
$var wire 1 ; in_cmd_reset $end
$var reg 3 < current_state [2:0] $end
$var reg 6 = mem_reg [5:0] $end
$var reg 3 > next_state [2:0] $end
$var reg 1 2 out_mem_w_en $end
$var reg 1 , out_rst $end
$var reg 1 ( out_utx_s_en $end
$upscope $end
$scope module key_drv $end
$var wire 1 # in_clk $end
$var wire 1 $ in_key_reset $end
$var wire 1 % in_key_switch $end
$var wire 1 / o_key_reset $end
$var wire 1 . o_key_switch $end
$var wire 1 - in_rst $end
$var reg 1 ? stat_reset $end
$var reg 1 @ stat_switch $end
$upscope $end
$scope module led_drv $end
$var wire 1 # in_clk $end
$var wire 6 A led_out [5:0] $end
$var wire 1 - in_rst $end
$var wire 6 B in_mem [5:0] $end
$var reg 6 C led_stat [5:0] $end
$upscope $end
$scope module mem $end
$var wire 1 # in_clk $end
$var wire 6 D in_mem [5:0] $end
$var wire 1 2 mem_wrt_en $end
$var wire 6 E out_mem [5:0] $end
$var wire 1 - in_rst $end
$var reg 6 F mem_registr [5:0] $end
$var reg 1 1 mem_wrt_rd $end
$upscope $end
$scope module reset $end
$var wire 1 # in_clk $end
$var wire 1 , in_fsm_rst $end
$var wire 1 G start $end
$var wire 1 H ovf_b $end
$var wire 1 - out_rst $end
$var reg 3 I count_bit [2:0] $end
$var reg 1 J stat $end
$upscope $end
$scope module u_rx $end
$var wire 1 # in_clk $end
$var wire 1 - in_rst $end
$var wire 1 & in_rx $end
$var wire 1 K ovf_w $end
$var wire 1 L ovf_b $end
$var wire 1 * out_rx_ready $end
$var wire 8 M out_rx_data [7:0] $end
$var reg 6 N count_bit [5:0] $end
$var reg 7 O count_wait [6:0] $end
$var reg 20 P data_lth [19:0] $end
$var reg 1 Q stat $end
$upscope $end
$scope module u_tx $end
$var wire 1 # in_clk $end
$var wire 6 R in_mem [5:0] $end
$var wire 1 - in_rst $end
$var wire 1 ( in_utx_st $end
$var wire 1 ) out_utx_bs $end
$var wire 1 S ovf_w $end
$var wire 1 T ovf_b $end
$var wire 1 ' out_utx_rd $end
$var wire 1 ! out_rx $end
$var reg 4 U count_bit [3:0] $end
$var reg 8 V count_wait [7:0] $end
$var reg 11 W data_reg [10:0] $end
$var reg 1 X stat $end
$upscope $end
$upscope $end
$upscope $end
$enddefinitions $end
$comment Show the parameter values. $end
$dumpall
$end
#0
$dumpvars
xX
bx W
bx V
bx U
xT
xS
bx R
xQ
bx P
bx O
bx N
bx M
xL
xK
xJ
bx I
xH
1G
bx F
bx E
bx D
bx C
bx B
bx A
x@
x?
b0x >
bx =
bx <
x;
x:
x9
bx 8
bx 7
bx 6
bx 5
bx 4
bx 3
02
x1
bx 0
x/
x.
x-
1,
bx +
x*
x)
0(
x'
x&
x%
x$
1#
bx "
x!
$end
#1
0#
#2
b0 >
0H
0G
b0 I
0-
1J
b0 <
1#
#3
0#
#4
0:
0;
09
b0 +
b0 7
b0 M
b100000 6
0'
0*
0T
0S
1!
b0 >
0L
0K
b1 I
b0 "
b0 4
b0 A
b0 C
0?
0@
b0 3
b0 8
b0 B
b0 E
b0 F
b0 R
01
b0 U
b0 V
b1000xxxxxx1 W
0)
0X
b0 N
b0 O
b0 P
0Q
1#
#5
0#
#6
b10000000001 W
b10 I
b0 0
b0 5
b0 D
b0 =
1#
#7
0#
#8
b11 I
1#
#9
0#
#10
1H
b100 I
1#
#11
0#
#12
0H
1-
0J
b0 I
1#
#13
0#
#14
x@
x?
1#
#15
0#
#16
1#
#17
0#
#18
1#
#19
0#
#20
b0 >
0.
1@
1#
1%
#21
0#
#22
1#
#23
0#
#24
1#
#25
0#
#26
1#
#27
0#
#28
1#
#29
0#
#30
1#
#31
0#
#32
1#
#33
0#
#34
1#
#35
0#
#36
1#
#37
0#
#38
1#
#39
0#
#40
0@
1#
0%
