src/FPGA_tester/src/top.vcd
$date
	Mon Nov 18 04:29:49 2024
$end
$version
	Icarus Verilog
$end
$timescale
	1s
$end
$scope module tester_tb $end
$var wire 1 ! uart_tx $end
$var wire 6 " led [5:0] $end
$var reg 1 # clk $end
$var reg 1 $ key_rst $end
$var reg 1 % key_switch $end
$var reg 1 & uart_rx $end
$scope module top $end
$var wire 1 # clk $end
$var wire 1 $ key_rst $end
$var wire 1 % key_switch $end
$var wire 1 & uart_rx $end
$var wire 1 ' utx_s_rd $end
$var wire 1 ( utx_s_en $end
$var wire 1 ) utx_s_bs $end
$var wire 1 * urx_rc_rd $end
$var wire 8 + urx [7:0] $end
$var wire 1 ! uart_tx $end
$var wire 1 , rst_en $end
$var wire 1 - rst $end
$var wire 1 . push_sw $end
$var wire 1 / push_rst $end
$var wire 6 0 mem_wr [5:0] $end
$var wire 1 1 mem_w_rd $end
$var wire 1 2 mem_w_en $end
$var wire 6 3 mem_rd [5:0] $end
$var wire 6 4 led [5:0] $end
$scope module fsm $end
$var wire 1 # in_clk $end
$var wire 6 5 out_mem [5:0] $end
$var wire 6 6 mem_c [5:0] $end
$var wire 1 ' in_utx_s_rd $end
$var wire 1 ) in_utx_s_bs $end
$var wire 8 7 in_urx [7:0] $end
$var wire 1 - in_rst $end
$var wire 1 . in_push_sw $end
$var wire 1 / in_push_rst $end
$var wire 1 1 in_mem_w_rd $end
$var wire 6 8 in_mem [5:0] $end
$var wire 1 9 in_cmd_setup $end
$var wire 1 : in_cmd_send $end
$var wire 1 ; in_cmd_reset $end
$var reg 3 < current_state [2:0] $end
$var reg 6 = mem_reg [5:0] $end
$var reg 3 > next_state [2:0] $end
$var reg 1 2 out_mem_w_en $end
$var reg 1 , out_rst $end
$var reg 1 ( out_utx_s_en $end
$upscope $end
$scope module key_drv $end
$var wire 1 # in_clk $end
$var wire 1 $ in_key_reset $end
$var wire 1 % in_key_switch $end
$var wire 1 / o_key_reset $end
$var wire 1 . o_key_switch $end
$var wire 1 - in_rst $end
$var reg 1 ? stat_reset $end
$var reg 1 @ stat_switch $end
$upscope $end
$scope module led_drv $end
$var wire 1 # in_clk $end
$var wire 6 A led_out [5:0] $end
$var wire 1 - in_rst $end
$var wire 6 B in_mem [5:0] $end
$var reg 6 C led_stat [5:0] $end
$upscope $end
$scope module mem $end
$var wire 1 # in_clk $end
$var wire 6 D in_mem [5:0] $end
$var wire 1 2 mem_wrt_en $end
$var wire 6 E out_mem [5:0] $end
$var wire 1 - in_rst $end
$var reg 6 F mem_registr [5:0] $end
$var reg 1 1 mem_wrt_rd $end
$upscope $end
$scope module reset $end
$var wire 1 # in_clk $end
$var wire 1 , in_fsm_rst $end
$var wire 1 G start $end
$var wire 1 H ovf_b $end
$var wire 1 - out_rst $end
$var reg 3 I count_bit [2:0] $end
$var reg 1 J stat $end
$upscope $end
$scope module u_rx $end
$var wire 1 # in_clk $end
$var wire 1 - in_rst $end
$var wire 1 & in_rx $end
$var wire 1 K ovf_w $end
$var wire 1 L ovf_b $end
$var wire 1 * out_rx_ready $end
$var wire 8 M out_rx_data [7:0] $end
$var reg 6 N count_bit [5:0] $end
$var reg 7 O count_wait [6:0] $end
$var reg 20 P data_lth [19:0] $end
$var reg 1 Q stat $end
$upscope $end
$scope module u_tx $end
$var wire 1 # in_clk $end
$var wire 6 R in_mem [5:0] $end
$var wire 1 - in_rst $end
$var wire 1 ( in_utx_st $end
$var wire 1 ) out_utx_bs $end
$var wire 1 S ovf_w $end
$var wire 1 T ovf_b $end
$var wire 1 ' out_utx_rd $end
$var wire 1 ! out_rx $end
$var reg 4 U count_bit [3:0] $end
$var reg 8 V count_wait [7:0] $end
$var reg 11 W data_reg [10:0] $end
$var reg 1 X stat $end
$upscope $end
$upscope $end
$upscope $end
$enddefinitions $end
$comment Show the parameter values. $end
$dumpall
$end
#0
$dumpvars
xX
bx W
bx V
bx U
xT
xS
bx R
xQ
bx P
bx O
bx N
bx M
xL
xK
xJ
bx I
xH
1G
bx F
bx E
bx D
bx C
bx B
bx A
x@
x?
b0x >
bx =
bx <
x;
x:
x9
bx 8
bx 7
bx 6
bx 5
bx 4
bx 3
02
x1
bx 0
0/
x.
x-
1,
bx +
x*
x)
0(
x'
x&
x%
1$
1#
bx "
x!
$end
#1
0.
1%
0#
#2
b0 >
0H
0G
01
1@
1?
b0 I
0-
1J
b0 <
1#
#3
0#
#4
0:
0;
09
b0 +
b0 7
b0 M
b11111 6
0'
0*
0T
0S
1!
b0 >
0L
0K
b1 I
b111111 "
b111111 4
b111111 A
b111111 C
b111111 3
b111111 8
b111111 B
b111111 E
b111111 F
b111111 R
b0 U
b0 V
b1000xxxxxx1 W
0)
0X
b0 N
b0 O
b0 P
0Q
1#
#5
0#
#6
b10001111111 W
b10 I
b111111 0
b111111 5
b111111 D
b111111 =
1#
#7
0#
#8
b11 I
1#
#9
0#
#10
1H
b100 I
1#
#11
0#
#12
0H
1-
0J
b0 I
1#
#13
0#
#14
1#
#15
0#
#16
1#
#17
0#
#18
1#
#19
0#
#20
1#
#21
0#
#22
b10 >
1.
0%
1#
#23
0#
#24
0.
12
b10 >
0@
b10 <
1#
#25
0#
#26
b100 >
11
b11111 0
b11111 5
b11111 D
b11111 =
1#
#27
0#
#28
b111111 6
02
1(
b101 >
b11111 3
b11111 8
b11111 B
b11111 E
b11111 F
b11111 R
1%
b100 <
1#
#29
0#
#30
b101 >
1)
1X
b10000111111 W
01
1@
b11111 "
b11111 4
b11111 A
b11111 C
b101 <
1#
#31
0#
#32
b1 V
1#
#33
0#
#34
b10 V
1#
#35
0#
#36
b11 V
1#
#37
0#
#38
b100 V
1#
#39
0#
#40
b101 V
1#
#41
0#
#42
b110 V
1#
#43
0#
#44
b111 V
1#
#45
0#
#46
b1000 V
1#
#47
0#
#48
b1001 V
1#
#49
0#
#50
b1010 V
1#
#51
0#
#52
b1011 V
1#
#53
0#
#54
b1100 V
1#
#55
0#
#56
b1101 V
1#
#57
0#
#58
b1110 V
1#
#59
0#
#60
b1111 V
1#
#61
0#
#62
b10000 V
1#
#63
0#
#64
b10001 V
1#
#65
0#
#66
b10010 V
1#
#67
0#
#68
b10011 V
1#
#69
0#
#70
b10100 V
1#
#71
0#
#72
b10101 V
1#
#73
0#
#74
b10110 V
1#
#75
0#
#76
b10111 V
1#
#77
0#
#78
b11000 V
1#
#79
0#
#80
b11001 V
1#
#81
0#
#82
b11010 V
1#
#83
0#
#84
b11011 V
1#
#85
0#
#86
b11100 V
1#
#87
0#
#88
b11101 V
1#
#89
0#
#90
b11110 V
1#
#91
0#
#92
b11111 V
1#
#93
0#
#94
b100000 V
1#
#95
0#
#96
b100001 V
1#
#97
0#
#98
b100010 V
1#
#99
0#
#100
b100011 V
1#
#101
0#
#102
b100100 V
1#
#103
0#
#104
b100101 V
1#
#105
0#
#106
b100110 V
1#
#107
0#
#108
b100111 V
1#
#109
0#
#110
b101000 V
1#
#111
0#
#112
b101001 V
1#
#113
0#
#114
b101010 V
1#
#115
0#
#116
b101011 V
1#
#117
0#
#118
b101100 V
1#
#119
0#
#120
b101101 V
1#
#121
0#
#122
b101110 V
1#
#123
0#
#124
b101111 V
1#
#125
0#
#126
b110000 V
1#
#127
0#
#128
b110001 V
1#
#129
0#
#130
b110010 V
1#
#131
0#
#132
b110011 V
1#
#133
0#
#134
b110100 V
1#
#135
0#
#136
b110101 V
1#
#137
0#
#138
b110110 V
1#
#139
0#
#140
b110111 V
1#
#141
0#
#142
b111000 V
1#
#143
0#
#144
b111001 V
1#
#145
0#
#146
b111010 V
1#
#147
0#
#148
b111011 V
1#
#149
0#
#150
b111100 V
1#
#151
0#
#152
b111101 V
1#
#153
0#
#154
b111110 V
1#
#155
0#
#156
b111111 V
1#
#157
0#
#158
b1000000 V
1#
#159
0#
#160
b1000001 V
1#
#161
0#
#162
b1000010 V
1#
#163
0#
#164
b1000011 V
1#
#165
0#
#166
b1000100 V
1#
#167
0#
#168
b1000101 V
1#
#169
0#
#170
b1000110 V
1#
#171
0#
#172
b1000111 V
1#
#173
0#
#174
b1001000 V
1#
#175
0#
#176
b1001001 V
1#
#177
0#
#178
b1001010 V
1#
#179
0#
#180
b1001011 V
1#
#181
0#
#182
b1001100 V
1#
#183
0#
#184
b1001101 V
1#
#185
0#
#186
b1001110 V
1#
#187
0#
#188
b1001111 V
1#
#189
0#
#190
b1010000 V
1#
#191
0#
#192
b1010001 V
1#
#193
0#
#194
b1010010 V
1#
#195
0#
#196
b1010011 V
1#
#197
0#
#198
b1010100 V
1#
#199
0#
#200
b1010101 V
1#
#201
0#
#202
b1010110 V
1#
#203
0#
#204
b1010111 V
1#
#205
0#
#206
b1011000 V
1#
#207
0#
#208
b1011001 V
1#
#209
0#
#210
b1011010 V
1#
#211
0#
#212
b1011011 V
1#
#213
0#
#214
b1011100 V
1#
#215
0#
#216
b1011101 V
1#
#217
0#
#218
b1011110 V
1#
#219
0#
#220
b1011111 V
1#
#221
0#
#222
b1100000 V
1#
#223
0#
#224
b1100001 V
1#
#225
0#
#226
b1100010 V
1#
#227
0#
#228
b1100011 V
1#
#229
0#
#230
b1100100 V
1#
#231
0#
#232
b1100101 V
1#
#233
0#
#234
b1100110 V
1#
#235
0#
#236
b1100111 V
1#
#237
0#
#238
b1101000 V
1#
#239
0#
#240
b1101001 V
1#
#241
0#
#242
b1101010 V
1#
#243
0#
#244
b1101011 V
1#
#245
0#
#246
b1101100 V
1#
#247
0#
#248
b1101101 V
1#
#249
0#
#250
b1101110 V
1#
#251
0#
#252
b1101111 V
1#
#253
0#
#254
b1110000 V
1#
#255
0#
#256
b1110001 V
1#
#257
0#
#258
b1110010 V
1#
#259
0#
#260
b1110011 V
1#
#261
0#
#262
b1110100 V
1#
#263
0#
#264
b1110101 V
1#
#265
0#
#266
b1110110 V
1#
#267
0#
#268
b1110111 V
1#
#269
0#
#270
b1111000 V
1#
#271
0#
#272
b1111001 V
1#
#273
0#
#274
b1111010 V
1#
#275
0#
#276
b1111011 V
1#
#277
0#
#278
b1111100 V
1#
#279
0#
#280
b1111101 V
1#
#281
0#
#282
b1111110 V
1#
#283
0#
#284
b1111111 V
1#
#285
0#
#286
b10000000 V
1#
#287
0#
#288
b10000001 V
1#
#289
0#
#290
b10000010 V
1#
#291
0#
#292
b10000011 V
1#
#293
0#
#294
b10000100 V
1#
#295
0#
#296
b10000101 V
1#
#297
0#
#298
b10000110 V
1#
#299
0#
#300
b10000111 V
1#
#301
0#
#302
b10001000 V
1#
#303
0#
#304
b10001001 V
1#
#305
0#
#306
b10001010 V
1#
#307
0#
#308
b10001011 V
1#
#309
0#
#310
b10001100 V
1#
#311
0#
#312
b10001101 V
1#
#313
0#
#314
b10001110 V
1#
#315
0#
#316
b10001111 V
1#
#317
0#
#318
b10010000 V
1#
#319
0#
#320
b10010001 V
1#
#321
0#
#322
b10010010 V
1#
#323
0#
#324
b10010011 V
1#
#325
0#
#326
b10010100 V
1#
#327
0#
#328
b10010101 V
1#
#329
0#
#330
b10010110 V
1#
#331
0#
#332
b10010111 V
1#
#333
0#
#334
b10011000 V
1#
#335
0#
#336
b10011001 V
1#
#337
0#
#338
b10011010 V
1#
#339
0#
#340
b10011011 V
1#
#341
0#
#342
b10011100 V
1#
#343
0#
#344
b10011101 V
1#
#345
0#
#346
b10011110 V
1#
#347
0#
#348
b10011111 V
1#
#349
0#
#350
b10100000 V
1#
#351
0#
#352
b10100001 V
1#
#353
0#
#354
b10100010 V
1#
#355
0#
#356
b10100011 V
1#
#357
0#
#358
b10100100 V
1#
#359
0#
#360
b10100101 V
1#
#361
0#
#362
b10100110 V
1#
#363
0#
#364
b10100111 V
1#
#365
0#
#366
b10101000 V
1#
#367
0#
#368
b10101001 V
1#
#369
0#
#370
b10101010 V
1#
#371
0#
#372
b10101011 V
1#
#373
0#
#374
b10101100 V
1#
#375
0#
#376
b10101101 V
1#
#377
0#
#378
b10101110 V
1#
#379
0#
#380
b10101111 V
1#
#381
0#
#382
b10110000 V
1#
#383
0#
#384
b10110001 V
1#
#385
0#
#386
b10110010 V
1#
#387
0#
#388
b10110011 V
1#
#389
0#
#390
b10110100 V
1#
#391
0#
#392
b10110101 V
1#
#393
0#
#394
b10110110 V
1#
#395
0#
#396
b10110111 V
1#
#397
0#
#398
b10111000 V
1#
#399
0#
#400
b10111001 V
1#
#401
0#
#402
b10111010 V
1#
#403
0#
#404
b10111011 V
1#
#405
0#
#406
b10111100 V
1#
#407
0#
#408
b10111101 V
1#
#409
0#
#410
b10111110 V
1#
#411
0#
#412
b10111111 V
1#
#413
0#
#414
b11000000 V
1#
#415
0#
#416
b11000001 V
1#
#417
0#
#418
b11000010 V
1#
#419
0#
#420
b11000011 V
1#
#421
0#
#422
b11000100 V
1#
#423
0#
#424
b11000101 V
1#
#425
0#
#426
b11000110 V
1#
#427
0#
#428
b11000111 V
1#
#429
0#
#430
b11001000 V
1#
#431
0#
#432
b11001001 V
1#
#433
0#
#434
b11001010 V
1#
#435
0#
#436
b11001011 V
1#
#437
0#
#438
b11001100 V
1#
#439
0#
#440
b11001101 V
1#
#441
0#
#442
b11001110 V
1#
#443
0#
#444
b11001111 V
1#
#445
0#
#446
b11010000 V
1#
#447
0#
#448
b11010001 V
1#
#449
0#
#450
b11010010 V
1#
#451
0#
#452
b11010011 V
1#
#453
0#
#454
b11010100 V
1#
#455
0#
#456
b11010101 V
1#
#457
0#
#458
b11010110 V
1#
#459
0#
#460
b11010111 V
1#
#461
0#
#462
b11011000 V
1#
#463
0#
#464
b11011001 V
1#
#465
0#
#466
b11011010 V
1#
#467
0#
#468
b11011011 V
1#
#469
0#
#470
b11011100 V
1#
#471
0#
#472
b11011101 V
1#
#473
0#
#474
b11011110 V
1#
#475
0#
#476
b11011111 V
1#
#477
0#
#478
b11100000 V
1#
#479
0#
#480
b11100001 V
1#
#481
0#
#482
b11100010 V
1#
#483
0#
#484
b11100011 V
1#
#485
0#
#486
b11100100 V
1#
#487
0#
#488
b11100101 V
1#
#489
0#
#490
b11100110 V
1#
#491
0#
#492
b11100111 V
1#
#493
0#
#494
b11101000 V
1#
#495
0#
#496
b11101001 V
1#
#497
0#
#498
1S
b11101010 V
1#
#499
0#
#500
0S
0!
b1 U
b0 V
b1111111 W
1#
#501
0#
#502
b1 V
1#
#503
0#
#504
b10 V
1#
#505
0#
#506
b11 V
1#
#507
0#
#508
b100 V
1#
#509
0#
#510
b101 V
1#
#511
0#
#512
b110 V
1#
#513
0#
#514
b111 V
1#
#515
0#
#516
b1000 V
1#
#517
0#
#518
b1001 V
1#
#519
0#
#520
b1010 V
1#
#521
0#
#522
b1011 V
1#
#523
0#
#524
b1100 V
1#
#525
0#
#526
b1101 V
1#
#527
0#
#528
b1110 V
1#
#529
0#
#530
b1111 V
1#
#531
0#
#532
b10000 V
1#
#533
0#
#534
b10001 V
1#
#535
0#
#536
b10010 V
1#
#537
0#
#538
b10011 V
1#
#539
0#
#540
b10100 V
1#
#541
0#
#542
b10101 V
1#
#543
0#
#544
b10110 V
1#
#545
0#
#546
b10111 V
1#
#547
0#
#548
b11000 V
1#
#549
0#
#550
b11001 V
1#
#551
0#
#552
b11010 V
1#
#553
0#
#554
b11011 V
1#
#555
0#
#556
b11100 V
1#
#557
0#
#558
b11101 V
1#
#559
0#
#560
b11110 V
1#
#561
0#
#562
b11111 V
1#
#563
0#
#564
b100000 V
1#
#565
0#
#566
b100001 V
1#
#567
0#
#568
b100010 V
1#
#569
0#
#570
b100011 V
1#
#571
0#
#572
b100100 V
1#
#573
0#
#574
b100101 V
1#
#575
0#
#576
b100110 V
1#
#577
0#
#578
b100111 V
1#
#579
0#
#580
b101000 V
1#
#581
0#
#582
b101001 V
1#
#583
0#
#584
b101010 V
1#
#585
0#
#586
b101011 V
1#
#587
0#
#588
b101100 V
1#
#589
0#
#590
b101101 V
1#
#591
0#
#592
b101110 V
1#
#593
0#
#594
b101111 V
1#
#595
0#
#596
b110000 V
1#
#597
0#
#598
b110001 V
1#
#599
0#
#600
b110010 V
1#
#601
0#
#602
b110011 V
1#
#603
0#
#604
b110100 V
1#
#605
0#
#606
b110101 V
1#
#607
0#
#608
b110110 V
1#
#609
0#
#610
b110111 V
1#
#611
0#
#612
b111000 V
1#
#613
0#
#614
b111001 V
1#
#615
0#
#616
b111010 V
1#
#617
0#
#618
b111011 V
1#
#619
0#
#620
b111100 V
1#
#621
0#
#622
b111101 V
1#
#623
0#
#624
b111110 V
1#
#625
0#
#626
b111111 V
1#
#627
0#
#628
b1000000 V
1#
#629
0#
#630
b1000001 V
1#
#631
0#
#632
b1000010 V
1#
#633
0#
#634
b1000011 V
1#
#635
0#
#636
b1000100 V
1#
#637
0#
#638
b1000101 V
1#
#639
0#
#640
b1000110 V
1#
#641
0#
#642
b1000111 V
1#
#643
0#
#644
b1001000 V
1#
#645
0#
#646
b1001001 V
1#
#647
0#
#648
b1001010 V
1#
#649
0#
#650
b1001011 V
1#
#651
0#
#652
b1001100 V
1#
#653
0#
#654
b1001101 V
1#
#655
0#
#656
b1001110 V
1#
#657
0#
#658
b1001111 V
1#
#659
0#
#660
b1010000 V
1#
#661
0#
#662
b1010001 V
1#
#663
0#
#664
b1010010 V
1#
#665
0#
#666
b1010011 V
1#
#667
0#
#668
b1010100 V
1#
#669
0#
#670
b1010101 V
1#
#671
0#
#672
b1010110 V
1#
#673
0#
#674
b1010111 V
1#
#675
0#
#676
b1011000 V
1#
#677
0#
#678
b1011001 V
1#
#679
0#
#680
b1011010 V
1#
#681
0#
#682
b1011011 V
1#
#683
0#
#684
b1011100 V
1#
#685
0#
#686
b1011101 V
1#
#687
0#
#688
b1011110 V
1#
#689
0#
#690
b1011111 V
1#
#691
0#
#692
b1100000 V
1#
#693
0#
#694
b1100001 V
1#
#695
0#
#696
b1100010 V
1#
#697
0#
#698
b1100011 V
1#
#699
0#
#700
b1100100 V
1#
#701
0#
#702
b1100101 V
1#
#703
0#
#704
b1100110 V
1#
#705
0#
#706
b1100111 V
1#
#707
0#
#708
b1101000 V
1#
#709
0#
#710
b1101001 V
1#
#711
0#
#712
b1101010 V
1#
#713
0#
#714
b1101011 V
1#
#715
0#
#716
b1101100 V
1#
#717
0#
#718
b1101101 V
1#
#719
0#
#720
b1101110 V
1#
#721
0#
#722
b1101111 V
1#
#723
0#
#724
b1110000 V
1#
#725
0#
#726
b1110001 V
1#
#727
0#
#728
b1110010 V
1#
#729
0#
#730
b1110011 V
1#
#731
0#
#732
b1110100 V
1#
#733
0#
#734
b1110101 V
1#
#735
0#
#736
b1110110 V
1#
#737
0#
#738
b1110111 V
1#
#739
0#
#740
b1111000 V
1#
#741
0#
#742
b1111001 V
1#
#743
0#
#744
b1111010 V
1#
#745
0#
#746
b1111011 V
1#
#747
0#
#748
b1111100 V
1#
#749
0#
#750
b1111101 V
1#
#751
0#
#752
b1111110 V
1#
#753
0#
#754
b1111111 V
1#
#755
0#
#756
b10000000 V
1#
#757
0#
#758
b10000001 V
1#
#759
0#
#760
b10000010 V
1#
#761
0#
#762
b10000011 V
1#
#763
0#
#764
b10000100 V
1#
#765
0#
#766
b10000101 V
1#
#767
0#
#768
b10000110 V
1#
#769
0#
#770
b10000111 V
1#
#771
0#
#772
b10001000 V
1#
#773
0#
#774
b10001001 V
1#
#775
0#
#776
b10001010 V
1#
#777
0#
#778
b10001011 V
1#
#779
0#
#780
b10001100 V
1#
#781
0#
#782
b10001101 V
1#
#783
0#
#784
b10001110 V
1#
#785
0#
#786
b10001111 V
1#
#787
0#
#788
b10010000 V
1#
#789
0#
#790
b10010001 V
1#
#791
0#
#792
b10010010 V
1#
#793
0#
#794
b10010011 V
1#
#795
0#
#796
b10010100 V
1#
#797
0#
#798
b10010101 V
1#
#799
0#
#800
b10010110 V
1#
#801
0#
#802
b10010111 V
1#
#803
0#
#804
b10011000 V
1#
#805
0#
#806
b10011001 V
1#
#807
0#
#808
b10011010 V
1#
#809
0#
#810
b10011011 V
1#
#811
0#
#812
b10011100 V
1#
#813
0#
#814
b10011101 V
1#
#815
0#
#816
b10011110 V
1#
#817
0#
#818
b10011111 V
1#
#819
0#
#820
b10100000 V
1#
#821
0#
#822
b10100001 V
1#
#823
0#
#824
b10100010 V
1#
#825
0#
#826
b10100011 V
1#
#827
0#
#828
b10100100 V
1#
#829
0#
#830
b10100101 V
1#
#831
0#
#832
b10100110 V
1#
#833
0#
#834
b10100111 V
1#
#835
0#
#836
b10101000 V
1#
#837
0#
#838
b10101001 V
1#
#839
0#
#840
b10101010 V
1#
#841
0#
#842
b10101011 V
1#
#843
0#
#844
b10101100 V
1#
#845
0#
#846
b10101101 V
1#
#847
0#
#848
b10101110 V
1#
#849
0#
#850
b10101111 V
1#
#851
0#
#852
b10110000 V
1#
#853
0#
#854
b10110001 V
1#
#855
0#
#856
b10110010 V
1#
#857
0#
#858
b10110011 V
1#
#859
0#
#860
b10110100 V
1#
#861
0#
#862
b10110101 V
1#
#863
0#
#864
b10110110 V
1#
#865
0#
#866
b10110111 V
1#
#867
0#
#868
b10111000 V
1#
#869
0#
#870
b10111001 V
1#
#871
0#
#872
b10111010 V
1#
#873
0#
#874
b10111011 V
1#
#875
0#
#876
b10111100 V
1#
#877
0#
#878
b10111101 V
1#
#879
0#
#880
b10111110 V
1#
#881
0#
#882
b10111111 V
1#
#883
0#
#884
b11000000 V
1#
#885
0#
#886
b11000001 V
1#
#887
0#
#888
b11000010 V
1#
#889
0#
#890
b11000011 V
1#
#891
0#
#892
b11000100 V
1#
#893
0#
#894
b11000101 V
1#
#895
0#
#896
b11000110 V
1#
#897
0#
#898
b11000111 V
1#
#899
0#
#900
b11001000 V
1#
#901
0#
#902
b11001001 V
1#
#903
0#
#904
b11001010 V
1#
#905
0#
#906
b11001011 V
1#
#907
0#
#908
b11001100 V
1#
#909
0#
#910
b11001101 V
1#
#911
0#
#912
b11001110 V
1#
#913
0#
#914
b11001111 V
1#
#915
0#
#916
b11010000 V
1#
#917
0#
#918
b11010001 V
1#
#919
0#
#920
b11010010 V
1#
#921
0#
#922
b11010011 V
1#
#923
0#
#924
b11010100 V
1#
#925
0#
#926
b11010101 V
1#
#927
0#
#928
b11010110 V
1#
#929
0#
#930
b11010111 V
1#
#931
0#
#932
b11011000 V
1#
#933
0#
#934
b11011001 V
1#
#935
0#
#936
b11011010 V
1#
#937
0#
#938
b11011011 V
1#
#939
0#
#940
b11011100 V
1#
#941
0#
#942
b11011101 V
1#
#943
0#
#944
b11011110 V
1#
#945
0#
#946
b11011111 V
1#
#947
0#
#948
b11100000 V
1#
#949
0#
#950
b11100001 V
1#
#951
0#
#952
b11100010 V
1#
#953
0#
#954
b11100011 V
1#
#955
0#
#956
b11100100 V
1#
#957
0#
#958
b11100101 V
1#
#959
0#
#960
b11100110 V
1#
#961
0#
#962
b11100111 V
1#
#963
0#
#964
b11101000 V
1#
#965
0#
#966
b11101001 V
1#
#967
0#
#968
1S
b11101010 V
1#
#969
0#
#970
0S
b11111110 W
b0 V
b10 U
1#
#971
0#
#972
b1 V
1#
#973
0#
#974
b10 V
1#
#975
0#
#976
b11 V
1#
#977
0#
#978
b100 V
1#
#979
0#
#980
b101 V
1#
#981
0#
#982
b110 V
1#
#983
0#
#984
b111 V
1#
#985
0#
#986
b1000 V
1#
#987
0#
#988
b1001 V
1#
#989
0#
#990
b1010 V
1#
#991
0#
#992
b1011 V
1#
#993
0#
#994
b1100 V
1#
#995
0#
#996
b1101 V
1#
#997
0#
#998
b1110 V
1#
#999
0#
#1000
b1111 V
1#
#1001
0#
#1002
b10000 V
1#
#1003
0#
#1004
b10001 V
1#
#1005
0#
#1006
b10010 V
1#
#1007
0#
#1008
b10011 V
1#
#1009
0#
#1010
b10100 V
1#
#1011
0#
#1012
b10101 V
1#
#1013
0#
#1014
b10110 V
1#
#1015
0#
#1016
b10111 V
1#
#1017
0#
#1018
b11000 V
1#
#1019
0#
#1020
b11001 V
1#
#1021
0#
#1022
b11010 V
1#
#1023
0#
#1024
b11011 V
1#
#1025
0#
#1026
b11100 V
1#
#1027
0#
#1028
b11101 V
1#
#1029
0#
#1030
b11110 V
1#
#1031
0#
#1032
b11111 V
1#
#1033
0#
#1034
b100000 V
1#
#1035
0#
#1036
b100001 V
1#
#1037
0#
#1038
b100010 V
1#
#1039
0#
#1040
b100011 V
1#
#1041
0#
#1042
b100100 V
1#
#1043
0#
#1044
b100101 V
1#
#1045
0#
#1046
b100110 V
1#
#1047
0#
#1048
b100111 V
1#
#1049
0#
#1050
b101000 V
1#
#1051
0#
#1052
b101001 V
1#
#1053
0#
#1054
b101010 V
1#
#1055
0#
#1056
b101011 V
1#
#1057
0#
#1058
b101100 V
1#
#1059
0#
#1060
b101101 V
1#
#1061
0#
#1062
b101110 V
1#
#1063
0#
#1064
b101111 V
1#
#1065
0#
#1066
b110000 V
1#
#1067
0#
#1068
b110001 V
1#
#1069
0#
#1070
b110010 V
1#
#1071
0#
#1072
b110011 V
1#
#1073
0#
#1074
b110100 V
1#
#1075
0#
#1076
b110101 V
1#
#1077
0#
#1078
b110110 V
1#
#1079
0#
#1080
b110111 V
1#
#1081
0#
#1082
b111000 V
1#
#1083
0#
#1084
b111001 V
1#
#1085
0#
#1086
b111010 V
1#
#1087
0#
#1088
b111011 V
1#
#1089
0#
#1090
b111100 V
1#
#1091
0#
#1092
b111101 V
1#
#1093
0#
#1094
b111110 V
1#
#1095
0#
#1096
b111111 V
1#
#1097
0#
#1098
b1000000 V
1#
#1099
0#
#1100
b1000001 V
1#
#1101
0#
#1102
b1000010 V
1#
#1103
0#
#1104
b1000011 V
1#
#1105
0#
#1106
b1000100 V
1#
#1107
0#
#1108
b1000101 V
1#
#1109
0#
#1110
b1000110 V
1#
#1111
0#
#1112
b1000111 V
1#
#1113
0#
#1114
b1001000 V
1#
#1115
0#
#1116
b1001001 V
1#
#1117
0#
#1118
b1001010 V
1#
#1119
0#
#1120
b1001011 V
1#
#1121
0#
#1122
b1001100 V
1#
#1123
0#
#1124
b1001101 V
1#
#1125
0#
#1126
b1001110 V
1#
#1127
0#
#1128
b1001111 V
1#
#1129
0#
#1130
b1010000 V
1#
#1131
0#
#1132
b1010001 V
1#
#1133
0#
#1134
b1010010 V
1#
#1135
0#
#1136
b1010011 V
1#
#1137
0#
#1138
b1010100 V
1#
#1139
0#
#1140
b1010101 V
1#
#1141
0#
#1142
b1010110 V
1#
#1143
0#
#1144
b1010111 V
1#
#1145
0#
#1146
b1011000 V
1#
#1147
0#
#1148
b1011001 V
1#
#1149
0#
#1150
b1011010 V
1#
#1151
0#
#1152
b1011011 V
1#
#1153
0#
#1154
b1011100 V
1#
#1155
0#
#1156
b1011101 V
1#
#1157
0#
#1158
b1011110 V
1#
#1159
0#
#1160
b1011111 V
1#
#1161
0#
#1162
b1100000 V
1#
#1163
0#
#1164
b1100001 V
1#
#1165
0#
#1166
b1100010 V
1#
#1167
0#
#1168
b1100011 V
1#
#1169
0#
#1170
b1100100 V
1#
#1171
0#
#1172
b1100101 V
1#
#1173
0#
#1174
b1100110 V
1#
#1175
0#
#1176
b1100111 V
1#
#1177
0#
#1178
b1101000 V
1#
#1179
0#
#1180
b1101001 V
1#
#1181
0#
#1182
b1101010 V
1#
#1183
0#
#1184
b1101011 V
1#
#1185
0#
#1186
b1101100 V
1#
#1187
0#
#1188
b1101101 V
1#
#1189
0#
#1190
b1101110 V
1#
#1191
0#
#1192
b1101111 V
1#
#1193
0#
#1194
b1110000 V
1#
#1195
0#
#1196
b1110001 V
1#
#1197
0#
#1198
b1110010 V
1#
#1199
0#
#1200
b1110011 V
1#
#1201
0#
#1202
b1110100 V
1#
#1203
0#
#1204
b1110101 V
1#
#1205
0#
#1206
b1110110 V
1#
#1207
0#
#1208
b1110111 V
1#
#1209
0#
#1210
b1111000 V
1#
#1211
0#
#1212
b1111001 V
1#
#1213
0#
#1214
b1111010 V
1#
#1215
0#
#1216
b1111011 V
1#
#1217
0#
#1218
b1111100 V
1#
#1219
0#
#1220
b1111101 V
1#
#1221
0#
#1222
b1111110 V
1#
#1223
0#
#1224
b1111111 V
1#
#1225
0#
#1226
b10000000 V
1#
#1227
0#
#1228
b10000001 V
1#
#1229
0#
#1230
b10000010 V
1#
#1231
0#
#1232
b10000011 V
1#
#1233
0#
#1234
b10000100 V
1#
#1235
0#
#1236
b10000101 V
1#
#1237
0#
#1238
b10000110 V
1#
#1239
0#
#1240
b10000111 V
1#
#1241
0#
#1242
b10001000 V
1#
#1243
0#
#1244
b10001001 V
1#
#1245
0#
#1246
b10001010 V
1#
#1247
0#
#1248
b10001011 V
1#
#1249
0#
#1250
b10001100 V
1#
#1251
0#
#1252
b10001101 V
1#
#1253
0#
#1254
b10001110 V
1#
#1255
0#
#1256
b10001111 V
1#
#1257
0#
#1258
b10010000 V
1#
#1259
0#
#1260
b10010001 V
1#
#1261
0#
#1262
b10010010 V
1#
#1263
0#
#1264
b10010011 V
1#
#1265
0#
#1266
b10010100 V
1#
#1267
0#
#1268
b10010101 V
1#
#1269
0#
#1270
b10010110 V
1#
#1271
0#
#1272
b10010111 V
1#
#1273
0#
#1274
b10011000 V
1#
#1275
0#
#1276
b10011001 V
1#
#1277
0#
#1278
b10011010 V
1#
#1279
0#
#1280
b10011011 V
1#
#1281
0#
#1282
b10011100 V
1#
#1283
0#
#1284
b10011101 V
1#
#1285
0#
#1286
b10011110 V
1#
#1287
0#
#1288
b10011111 V
1#
#1289
0#
#1290
b10100000 V
1#
#1291
0#
#1292
b10100001 V
1#
#1293
0#
#1294
b10100010 V
1#
#1295
0#
#1296
b10100011 V
1#
#1297
0#
#1298
b10100100 V
1#
#1299
0#
#1300
b10100101 V
1#
#1301
0#
#1302
b10100110 V
1#
